^C:\USERS\LUKA\DOCUMENTS\VJEZBA_10\VJEZBA_10\ADDITION.CPP|C:\USERS\LUKA\DOCUMENTS\VJEZBA_10\VJEZBA_10\MAIN.CPP|C:\USERS\LUKA\DOCUMENTS\VJEZBA_10\VJEZBA_10\VJEZBA_10.CPP
C:\USERS\LUKA\DOCUMENTS\VJEZBA_10\VJEZBA_10\DEBUG\VC142.PDB
C:\USERS\LUKA\DOCUMENTS\VJEZBA_10\VJEZBA_10\DEBUG\VC142.IDB
C:\USERS\LUKA\DOCUMENTS\VJEZBA_10\VJEZBA_10\DEBUG\VJEZBA_10.OBJ
C:\USERS\LUKA\DOCUMENTS\VJEZBA_10\VJEZBA_10\DEBUG\ADDITION.OBJ
^C:\USERS\LUKA\DOCUMENTS\VJEZBA_10\VJEZBA_10\MAIN.CPP|C:\USERS\LUKA\DOCUMENTS\VJEZBA_10\VJEZBA_10\VJEZBA_10.CPP
C:\USERS\LUKA\DOCUMENTS\VJEZBA_10\VJEZBA_10\DEBUG\VC142.PDB
C:\USERS\LUKA\DOCUMENTS\VJEZBA_10\VJEZBA_10\DEBUG\VC142.IDB
C:\USERS\LUKA\DOCUMENTS\VJEZBA_10\VJEZBA_10\DEBUG\VJEZBA_10.OBJ
^C:\USERS\LUKA\DOCUMENTS\VJEZBA_10\VJEZBA_10\MAIN.CPP
C:\USERS\LUKA\DOCUMENTS\VJEZBA_10\VJEZBA_10\DEBUG\VC142.PDB
C:\USERS\LUKA\DOCUMENTS\VJEZBA_10\VJEZBA_10\DEBUG\VC142.IDB
C:\USERS\LUKA\DOCUMENTS\VJEZBA_10\VJEZBA_10\DEBUG\MAIN.OBJ
